<?xml version="1.0" standalone="no"?>
<!DOCTYPE svg PUBLIC "-//W3C//DTD SVG 20010904//EN"
 "http://www.w3.org/TR/2001/REC-SVG-20010904/DTD/svg10.dtd">
<svg version="1.0" xmlns="http://www.w3.org/2000/svg"
 width="260.000000pt" height="260.000000pt" viewBox="0 0 260.000000 260.000000"
 preserveAspectRatio="xMidYMid meet">
<metadata>
Created by potrace 1.11, written by Peter Selinger 2001-2013
</metadata>
<g transform="translate(0.000000,260.000000) scale(0.100000,-0.100000)"
fill="#000000" stroke="none">
<path d="M0 1300 l0 -1300 1300 0 1300 0 0 1300 0 1300 -1300 0 -1300 0 0
-1300z m540 115 l0 -725 380 0 380 0 0 -120 0 -120 -510 0 -510 0 0 845 0 845
130 0 130 0 0 -725z m1830 605 l0 -120 -250 0 -250 0 0 -725 0 -726 -132 3
-133 3 -3 722 -2 723 -248 2 -247 3 -3 104 c-1 58 0 111 2 118 4 11 123 13
636 13 l630 0 0 -120z"/>
</g>
</svg>
